test Thu Sep 26 19:43:23 CDT 2019
test Thu Sep 26 19:44:00 CDT 2019
test Thu Sep 26 19:45:38 CDT 2019
test Thu Sep 26 19:46:52 CDT 2019
test Thu Sep 26 19:50:16 CDT 2019
test Thu Sep 26 19:51:49 CDT 2019
test Thu Sep 26 20:30:05 CDT 2019
test Thu Sep 26 20:30:30 CDT 2019
test Thu Sep 26 20:30:59 CDT 2019
